…
~~~
# first column of the data frame
hawks[, 1]    
~~~
{: .language-r}



~~~
# A tibble: 908 × 1
   Month
   <dbl>
 1     9
 2     9
 3     9
 4     9
 5     9
 6     9
 7     9
 8     9
 9     9
10     9
# … with 898 more rows
~~~
{: .output}



~~~
# first column of the data frame
hawks[1]      
~~~
{: .language-r}



~~~
# A tibble: 908 × 1
   Month
   <dbl>
 1     9
 2     9
 3     9
 4     9
 5     9
 6     9
 7     9
 8     9
 9     9
10     9
# … with 898 more rows
…
`:` is a special function that creates numeric vectors of integers in increasing
or decreasing order, test `1:10` and `10:1` for instance.

You can also exclude certain indices of a data frame using the "`-`" sign:


~~~
hawks[, -1]  # the whole data frame, except the first column
~~~
{: .language-r}



~~~
# A tibble: 908 × 18
     Day  Year CaptureTime ReleaseTime BandNumber Species Age   Sex    Wing
   <dbl> <dbl> <chr>       <time>      <chr>      <chr>   <chr> <chr> <dbl>
 1    19  1992 13:30          NA       877-76317  RT      I     <NA>    385
 2    22  1992 10:30          NA       877-76318  RT      I     <NA>    376
 3    23  1992 12:45          NA       877-76319  RT      I     <NA>    381
 4    23  1992 10:50          NA       745-49508  CH      I     F       265
 5    27  1992 11:15          NA       1253-98801 SS      I     F       205
 6    28  1992 11:25          NA       1207-55910 RT      I     <NA>    412
 7    28  1992 13:30          NA       877-76320  RT      I     <NA>    370
 8    29  1992 11:45          NA       877-76321  RT      A     <NA>    375
 9    29  1992 15:35          NA       877-76322  RT      A     <NA>    412
10    30  1992 13:45          NA       1207-55911 RT      I     <NA>    405
# … with 898 more rows, and 9 more variables: Weight <dbl>, Culmen <dbl>,
#   Hallux <dbl>, Tail <dbl>, StandardTail <dbl>, Tarsus <dbl>,
#   WingPitFat <dbl>, KeelFat <dbl>, Crop <dbl>
…
Data frames can be subset by calling indices (as shown previously), but also by
calling their column names directly:


~~~
hawks["Year"]
~~~
{: .language-r}



~~~
# A tibble: 908 × 1
    Year
   <dbl>
 1  1992
 2  1992
 3  1992
 4  1992
 5  1992
 6  1992
 7  1992
 8  1992
 9  1992
10  1992
# … with 898 more rows
~~~
{: .output}



~~~
hawks[, "Year"]
~~~
{: .language-r}



~~~
# A tibble: 908 × 1
    Year
   <dbl>
 1  1992
 2  1992
 3  1992
 4  1992
 5  1992
 6  1992
 7  1992
 8  1992
 9  1992
10  1992
# … with 898 more rows
…
