…
~~~
# first column of the data frame
samples[, 1]    
~~~
{: .language-r}



~~~
# A tibble: 100 x 1
   animal_id
       <dbl>
 1    800793
 2    804396
 3    805431
 4    805992
 5    808935
 6    810875
 7    812308
 8    814334
 9    816649
10    819947
# … with 90 more rows
~~~
{: .output}



~~~
# first column of the data frame
samples[1]      
~~~
{: .language-r}



~~~
# A tibble: 100 x 1
   animal_id
       <dbl>
 1    800793
 2    804396
 3    805431
 4    805992
 5    808935
 6    810875
 7    812308
 8    814334
 9    816649
10    819947
# … with 90 more rows
…
`:` is a special function that creates numeric vectors of integers in increasing
or decreasing order, test `1:10` and `10:1` for instance.

You can also exclude certain indices of a data frame using the "`-`" sign:


~~~
samples[, -1]       # the whole data frame, except the first column
~~~
{: .language-r}



~~~
# A tibble: 100 x 11
   month   day  year mouse_line strain  developmental_stage sex   organism_part
   <dbl> <dbl> <dbl> <chr>      <chr>   <chr>               <chr> <chr>        
 1     1     6  2018 Alk3       BALB/cJ adult               F     <NA>         
 2     1     7  2019 Vegfr      C57BL/6 adult               M     lung         
 3     1    12  2018 Vegfr      C57BL/6 pup                 F     lung         
 4     1    13  2019 Vegfr      C57BL/6 pup                 M     lung         
 5     1    14  2020 Alk3       BALB/cJ adult               M     <NA>         
 6     1    16  2019 Alk6       C57BL/6 embryo              <NA>  brain        
 7     1    19  2018 Alk3       BALB/cJ adult               F     <NA>         
 8     1    19  2019 Vegfr      C57BL/6 pup                 M     lung         
 9     1    20  2018 Vegfr      C57BL/6 pup                 F     lung         
10     1    24  2019 Vegfr      C57BL/6 adult               M     lung         
# … with 90 more rows, and 3 more variables: genotype <chr>,
#   experiment_type <chr>, researcher <chr>
…
Data frames can be subset by calling indices (as shown previously), but also by
calling their column names directly:


~~~
samples["animal_id"]
~~~
{: .language-r}



~~~
# A tibble: 100 x 1
   animal_id
       <dbl>
 1    800793
 2    804396
 3    805431
 4    805992
 5    808935
 6    810875
 7    812308
 8    814334
 9    816649
10    819947
# … with 90 more rows
~~~
{: .output}



~~~
samples[, "animal_id"]
~~~
{: .language-r}



~~~
# A tibble: 100 x 1
   animal_id
       <dbl>
 1    800793
 2    804396
 3    805431
 4    805992
 5    808935
 6    810875
 7    812308
 8    814334
 9    816649
10    819947
# … with 90 more rows
…
