…
This will select all the variables in `hawks` except `BandNumber`
and `Culmen`.

To choose rows based on a specific criterion, use `filter()`:


~~~
filter(hawks, Sex == "F")
~~~
{: .language-r}



~~~
# A tibble: 174 × 19
   Month   Day  Year CaptureTime ReleaseTime BandNumber Species Age   Sex  
   <dbl> <dbl> <dbl> <chr>       <time>      <chr>      <chr>   <chr> <chr>
 1     9    23  1992 10:50          NA       745-49508  CH      I     F    
 2     9    27  1992 11:15          NA       1253-98801 SS      I     F    
 3    10    27  1992 10:05          NA       1253-98802 SS      I     F    
 4     9    29  1993 10:25          NA       1253-98803 SS      I     F    
 5    10     1  1993 10:20          NA       745-49512  CH      I     F    
 6    10    12  1993 13:15          NA       745-49515  CH      I     F    
 7    10    14  1993 14:05          NA       1373-35272 SS      A     F    
 8     9     8  1994 12:10          NA       1423-16201 SS      I     F    
 9     9     9  1994 9:02           NA       2003-58433 SS      I     F    
10     9    20  1994 9:05           NA       2003-58435 SS      A     F    
# ℹ 164 more rows
# ℹ 10 more variables: Wing <dbl>, Weight <dbl>, Culmen <dbl>, Hallux <dbl>,
#   Tail <dbl>, StandardTail <dbl>, Tarsus <dbl>, WingPitFat <dbl>,
#   KeelFat <dbl>, Crop <dbl>
~~~
{: .output}

We can also filter rows that do not contain missing data in some columns:


~~~
filter(hawks, !is.na(Sex) & !is.na(Weight))
~~~
{: .language-r}



~~~
# A tibble: 327 × 19
   Month   Day  Year CaptureTime ReleaseTime BandNumber Species Age   Sex  
   <dbl> <dbl> <dbl> <chr>       <time>      <chr>      <chr>   <chr> <chr>
 1     9    23  1992 10:50          NA       745-49508  CH      I     F    
 2     9    27  1992 11:15          NA       1253-98801 SS      I     F    
 3    10    23  1992 16:05          NA       1173-19901 SS      I     M    
 4    10    27  1992 10:05          NA       1253-98802 SS      I     F    
 5     9    13  1993 14:25          NA       173-19904  SS      I     M    
 6     9    17  1993 15:25          NA       193-19905  SS      I     M    
 7     9    29  1993 10:25          NA       1253-98803 SS      I     F    
 8    10     1  1993 10:20          NA       745-49512  CH      I     F    
 9    10     1  1993 10:45          NA       745-49513  CH      A     M    
10    10    11  1993 11:35          NA       1173-19906 SS      I     M    
# ℹ 317 more rows
# ℹ 10 more variables: Wing <dbl>, Weight <dbl>, Culmen <dbl>, Hallux <dbl>,
#   Tail <dbl>, StandardTail <dbl>, Tarsus <dbl>, WingPitFat <dbl>,
#   KeelFat <dbl>, Crop <dbl>
…
This will return all rows that have a value in both the `Sex` column and the
`Weight` column. In **`Tidyverse`**, there is also a special functions `drop_na` 
that can be used to filter out rows with missing data:


~~~
drop_na(hawks, Sex, Weight)
~~~
{: .language-r}



~~~
# A tibble: 327 × 19
   Month   Day  Year CaptureTime ReleaseTime BandNumber Species Age   Sex  
   <dbl> <dbl> <dbl> <chr>       <time>      <chr>      <chr>   <chr> <chr>
 1     9    23  1992 10:50          NA       745-49508  CH      I     F    
 2     9    27  1992 11:15          NA       1253-98801 SS      I     F    
 3    10    23  1992 16:05          NA       1173-19901 SS      I     M    
 4    10    27  1992 10:05          NA       1253-98802 SS      I     F    
 5     9    13  1993 14:25          NA       173-19904  SS      I     M    
 6     9    17  1993 15:25          NA       193-19905  SS      I     M    
 7     9    29  1993 10:25          NA       1253-98803 SS      I     F    
 8    10     1  1993 10:20          NA       745-49512  CH      I     F    
 9    10     1  1993 10:45          NA       745-49513  CH      A     M    
10    10    11  1993 11:35          NA       1173-19906 SS      I     M    
# ℹ 317 more rows
# ℹ 10 more variables: Wing <dbl>, Weight <dbl>, Culmen <dbl>, Hallux <dbl>,
#   Tail <dbl>, StandardTail <dbl>, Tarsus <dbl>, WingPitFat <dbl>,
#   KeelFat <dbl>, Crop <dbl>
…
~~~
hawks %>%
  filter(Sex == "F") %>%
  select(Species, Sex, Weight)
~~~
{: .language-r}



~~~
# A tibble: 174 × 3
   Species Sex   Weight
   <chr>   <chr>  <dbl>
 1 CH      F        470
 2 SS      F        170
 3 SS      F        180
 4 SS      F        134
 5 CH      F        340
 6 CH      F        475
 7 SS      F         NA
 8 SS      F        194
 9 SS      F        159
10 SS      F        168
# ℹ 164 more rows
…
~~~
hawks_female <- hawks %>%
  filter(Sex == "F") %>%
  select(Species, Sex, Weight)

hawks_female
~~~
{: .language-r}



~~~
# A tibble: 174 × 3
   Species Sex   Weight
   <chr>   <chr>  <dbl>
 1 CH      F        470
 2 SS      F        170
 3 SS      F        180
 4 SS      F        134
 5 CH      F        340
 6 CH      F        475
 7 SS      F         NA
 8 SS      F        194
 9 SS      F        159
10 SS      F        168
# ℹ 164 more rows
…
To create a new column of weight in kg:


~~~
hawks %>%
  mutate(Weight_kg = Weight / 1000)
~~~
{: .language-r}



~~~
# A tibble: 908 × 20
   Month   Day  Year CaptureTime ReleaseTime BandNumber Species Age   Sex  
   <dbl> <dbl> <dbl> <chr>       <time>      <chr>      <chr>   <chr> <chr>
 1     9    19  1992 13:30          NA       877-76317  RT      I     <NA> 
 2     9    22  1992 10:30          NA       877-76318  RT      I     <NA> 
 3     9    23  1992 12:45          NA       877-76319  RT      I     <NA> 
 4     9    23  1992 10:50          NA       745-49508  CH      I     F    
 5     9    27  1992 11:15          NA       1253-98801 SS      I     F    
 6     9    28  1992 11:25          NA       1207-55910 RT      I     <NA> 
 7     9    28  1992 13:30          NA       877-76320  RT      I     <NA> 
 8     9    29  1992 11:45          NA       877-76321  RT      A     <NA> 
 9     9    29  1992 15:35          NA       877-76322  RT      A     <NA> 
10     9    30  1992 13:45          NA       1207-55911 RT      I     <NA> 
# ℹ 898 more rows
# ℹ 11 more variables: Wing <dbl>, Weight <dbl>, Culmen <dbl>, Hallux <dbl>,
#   Tail <dbl>, StandardTail <dbl>, Tarsus <dbl>, WingPitFat <dbl>,
#   KeelFat <dbl>, Crop <dbl>, Weight_kg <dbl>
…
You can also create a second new column based on the first new column within the same call of `mutate()`:


~~~
hawks %>%
  mutate(Weight_kg = Weight / 1000,
         Weight_lb = Weight_kg * 2.2)
~~~
{: .language-r}



~~~
# A tibble: 908 × 21
   Month   Day  Year CaptureTime ReleaseTime BandNumber Species Age   Sex  
   <dbl> <dbl> <dbl> <chr>       <time>      <chr>      <chr>   <chr> <chr>
 1     9    19  1992 13:30          NA       877-76317  RT      I     <NA> 
 2     9    22  1992 10:30          NA       877-76318  RT      I     <NA> 
 3     9    23  1992 12:45          NA       877-76319  RT      I     <NA> 
 4     9    23  1992 10:50          NA       745-49508  CH      I     F    
 5     9    27  1992 11:15          NA       1253-98801 SS      I     F    
 6     9    28  1992 11:25          NA       1207-55910 RT      I     <NA> 
 7     9    28  1992 13:30          NA       877-76320  RT      I     <NA> 
 8     9    29  1992 11:45          NA       877-76321  RT      A     <NA> 
 9     9    29  1992 15:35          NA       877-76322  RT      A     <NA> 
10     9    30  1992 13:45          NA       1207-55911 RT      I     <NA> 
# ℹ 898 more rows
# ℹ 12 more variables: Wing <dbl>, Weight <dbl>, Culmen <dbl>, Hallux <dbl>,
#   Tail <dbl>, StandardTail <dbl>, Tarsus <dbl>, WingPitFat <dbl>,
#   KeelFat <dbl>, Crop <dbl>, Weight_kg <dbl>, Weight_lb <dbl>
…
