…
This will select all the variables in `cnts` except `sample`
and `genotype`.

To choose rows based on a specific criterion, use `filter()`:


~~~
filter(cnts, sample == "A")
~~~
{: .language-r}



~~~
# A tibble: 43,280 x 4
   gene          sample genotype   cnt
   <chr>         <chr>  <chr>    <dbl>
 1 0610005C13Rik A      Wt           5
 2 0610007P14Rik A      Wt         582
 3 0610009B22Rik A      Wt         132
 4 0610009E02Rik A      Wt          13
 5 0610009L18Rik A      Wt          36
 6 0610009O20Rik A      Wt         761
 7 0610010F05Rik A      Wt         201
 8 0610010K14Rik A      Wt           2
 9 0610011F06Rik A      Wt         307
10 0610012D04Rik A      Wt           4
# … with 43,270 more rows
…
~~~
cnts %>%
  filter(sample == "A") %>%
  select(gene, genotype, cnt)
~~~
{: .language-r}



~~~
# A tibble: 43,280 x 3
   gene          genotype   cnt
   <chr>         <chr>    <dbl>
 1 0610005C13Rik Wt           5
 2 0610007P14Rik Wt         582
 3 0610009B22Rik Wt         132
 4 0610009E02Rik Wt          13
 5 0610009L18Rik Wt          36
 6 0610009O20Rik Wt         761
 7 0610010F05Rik Wt         201
 8 0610010K14Rik Wt           2
 9 0610011F06Rik Wt         307
10 0610012D04Rik Wt           4
# … with 43,270 more rows
…
~~~
cnts_A_sml <- cnts %>%
  filter(sample == "A") %>%
  select(gene, genotype, cnt)

cnts_A_sml
~~~
{: .language-r}



~~~
# A tibble: 43,280 x 3
   gene          genotype   cnt
   <chr>         <chr>    <dbl>
 1 0610005C13Rik Wt           5
 2 0610007P14Rik Wt         582
 3 0610009B22Rik Wt         132
 4 0610009E02Rik Wt          13
 5 0610009L18Rik Wt          36
 6 0610009O20Rik Wt         761
 7 0610010F05Rik Wt         201
 8 0610010K14Rik Wt           2
 9 0610011F06Rik Wt         307
10 0610012D04Rik Wt           4
# … with 43,270 more rows
…
>
>> ## Solution
>>
>> 
>> ~~~
>> cnts %>%
>>   filter(cnt > 10000 & genotype == "Wt") %>%
>>   select(gene, cnt)
>> ~~~
>> {: .language-r}
>> 
>> 
>> 
>> ~~~
>> # A tibble: 399 x 2
>>    gene     cnt
>>    <chr>  <dbl>
>>  1 Abca3  10111
>>  2 Ace    13834
>>  3 Ace    16353
>>  4 Ace    16830
>>  5 Actb   68901
>>  6 Actb   62553
>>  7 Actb   68037
>>  8 Acvrl1 10195
>>  9 Ager   51453
>> 10 Ager   47068
>> # … with 389 more rows
…
~~~
cnts %>% pivot_wider(
  id_cols = gene,
  names_from = sample,
  values_from = cnt
)
~~~
{: .language-r}



~~~
# A tibble: 43,280 x 7
   gene              A     B     C     D     E     F
   <chr>         <dbl> <dbl> <dbl> <dbl> <dbl> <dbl>
 1 0610005C13Rik     5     0     0     0     0     1
 2 0610007P14Rik   582   587   549   862   755   836
 3 0610009B22Rik   132    95   119   197   233   200
 4 0610009E02Rik    13     6     9     7    18    17
 5 0610009L18Rik    36    25    32    39    41    58
 6 0610009O20Rik   761   855   792  1295  1352  1233
 7 0610010F05Rik   201   186   171   330   408   309
 8 0610010K14Rik     2     1    11     3     7     6
 9 0610011F06Rik   307   317   318   377   357   434
10 0610012D04Rik     4     0     2     3     4     0
# … with 43,270 more rows
…
~~~
cnts_wide %>% pivot_longer(
    cols = A_Wt:F_Hom,
    names_to = c("sample", "genotype"),
    names_sep = "_",
    values_to = "cnt"
)
~~~
{: .language-r}



~~~
# A tibble: 259,680 x 4
   gene          sample genotype   cnt
   <chr>         <chr>  <chr>    <dbl>
 1 0610005C13Rik A      Wt           5
 2 0610005C13Rik B      Wt           0
 3 0610005C13Rik C      Wt           0
 4 0610005C13Rik D      Hom          0
 5 0610005C13Rik E      Hom          0
 6 0610005C13Rik F      Hom          1
 7 0610007P14Rik A      Wt         582
 8 0610007P14Rik B      Wt         587
 9 0610007P14Rik C      Wt         549
10 0610007P14Rik D      Hom        862
# … with 259,670 more rows
…
Let's start by calculating the difference between `D_Hom` and `E_Hom` variables
in the `cnts_wide` data frame:


~~~
cnts_wide %>%
  mutate(diff_DE = D_Hom - E_Hom)
~~~
{: .language-r}



~~~
# A tibble: 43,280 x 8
   gene           A_Wt  B_Wt  C_Wt D_Hom E_Hom F_Hom diff_DE
   <chr>         <dbl> <dbl> <dbl> <dbl> <dbl> <dbl>   <dbl>
 1 0610005C13Rik     5     0     0     0     0     1       0
 2 0610007P14Rik   582   587   549   862   755   836     107
 3 0610009B22Rik   132    95   119   197   233   200     -36
 4 0610009E02Rik    13     6     9     7    18    17     -11
 5 0610009L18Rik    36    25    32    39    41    58      -2
 6 0610009O20Rik   761   855   792  1295  1352  1233     -57
 7 0610010F05Rik   201   186   171   330   408   309     -78
 8 0610010K14Rik     2     1    11     3     7     6      -4
 9 0610011F06Rik   307   317   318   377   357   434      20
10 0610012D04Rik     4     0     2     3     4     0      -1
# … with 43,270 more rows
…
You can also create a second new column based on the first new column within the
same call of `mutate()`:


~~~
cnts_wide %>%
  mutate(diff_DE = D_Hom - E_Hom,
         diff_DE_pct = diff_DE / D_Hom * 100)
~~~
{: .language-r}



~~~
# A tibble: 43,280 x 9
   gene           A_Wt  B_Wt  C_Wt D_Hom E_Hom F_Hom diff_DE diff_DE_pct
   <chr>         <dbl> <dbl> <dbl> <dbl> <dbl> <dbl>   <dbl>       <dbl>
 1 0610005C13Rik     5     0     0     0     0     1       0      NaN   
 2 0610007P14Rik   582   587   549   862   755   836     107       12.4 
 3 0610009B22Rik   132    95   119   197   233   200     -36      -18.3 
 4 0610009E02Rik    13     6     9     7    18    17     -11     -157.  
 5 0610009L18Rik    36    25    32    39    41    58      -2       -5.13
 6 0610009O20Rik   761   855   792  1295  1352  1233     -57       -4.40
 7 0610010F05Rik   201   186   171   330   408   309     -78      -23.6 
 8 0610010K14Rik     2     1    11     3     7     6      -4     -133.  
 9 0610011F06Rik   307   317   318   377   357   434      20        5.31
10 0610012D04Rik     4     0     2     3     4     0      -1      -33.3 
# … with 43,270 more rows
…
> 
>> ## Solution
>>
>> 
>> ~~~
>> cnts_wide %>%
>>   mutate(log_A_Wt = log10(A_Wt)) %>%
>>   select(gene, log_A_Wt)
>> ~~~
>> {: .language-r}
>> 
>> 
>> 
>> ~~~
>> # A tibble: 43,280 x 2
>>    gene          log_A_Wt
>>    <chr>            <dbl>
>>  1 0610005C13Rik    0.699
>>  2 0610007P14Rik    2.76 
>>  3 0610009B22Rik    2.12 
>>  4 0610009E02Rik    1.11 
>>  5 0610009L18Rik    1.56 
>>  6 0610009O20Rik    2.88 
>>  7 0610010F05Rik    2.30 
>>  8 0610010K14Rik    0.301
>>  9 0610011F06Rik    2.49 
>> 10 0610012D04Rik    0.602
>> # … with 43,270 more rows
…
~~~
cnts %>%
  group_by(gene, genotype) %>%
  summarize(mean = mean(cnt),
            min = min(cnt)) %>%
  arrange(min)
~~~
{: .language-r}



~~~
# A tibble: 86,560 x 4
# Groups:   gene [43,280]
   gene          genotype  mean   min
   <chr>         <chr>    <dbl> <dbl>
 1 0610005C13Rik Hom      0.333     0
 2 0610005C13Rik Wt       1.67      0
 3 0610012D04Rik Hom      2.33      0
 4 0610012D04Rik Wt       2         0
 5 0610025J13Rik Wt       1.33      0
 6 0610031O16Rik Hom      0.333     0
 7 0610031O16Rik Wt       0.333     0
 8 0610040F04Rik Hom      1.33      0
 9 1110002J07Rik Wt       1.67      0
10 1110008E08Rik Hom      0         0
# … with 86,550 more rows
…
~~~
cnts %>%
  group_by(gene, genotype) %>%
  summarize(mean = mean(cnt),
            min = min(cnt)) %>%
  arrange(desc(min))
~~~
{: .language-r}



~~~
# A tibble: 86,560 x 4
# Groups:   gene [43,280]
   gene    genotype    mean    min
   <chr>   <chr>      <dbl>  <dbl>
 1 Yam1    Hom      562743. 546656
 2 Scgb1a1 Hom      343686. 312982
 3 Scgb1a1 Wt       405803. 312507
 4 Yam1    Wt       391803. 299211
 5 Sftpc   Hom      289526. 261788
 6 Sftpc   Wt       232192. 213059
 7 mt-Rnr2 Wt       173459. 159714
 8 Lyz2    Hom      152748  142628
 9 mt-Rnr2 Hom      153111. 141593
10 Sparc   Hom      108928  103711
# … with 86,550 more rows
…
We can also combine `count()` with other functions such as `filter()`. Here
we will count for each sample the number of genes with more than 10,000 reads.


~~~
cnts %>%
    filter(cnt > 10000) %>%
    count(gene) 
~~~
{: .language-r}



~~~
# A tibble: 260 x 2
   gene              n
   <chr>         <int>
 1 9430020K01Rik     1
 2 Abca3             4
 3 Abhd2             1
 4 Ace               6
 5 Actb              6
 6 Acvrl1            4
 7 Aes               1
 8 Ager              6
 9 Ahnak             6
10 Akap5             2
# … with 250 more rows
…
~~~
cnts %>%
  filter(cnt > 10000) %>%
  count(gene, genotype) 
~~~
{: .language-r}



~~~
# A tibble: 419 x 3
   gene          genotype     n
   <chr>         <chr>    <int>
 1 9430020K01Rik Hom          1
 2 Abca3         Hom          3
 3 Abca3         Wt           1
 4 Abhd2         Hom          1
 5 Ace           Hom          3
 6 Ace           Wt           3
 7 Actb          Hom          3
 8 Actb          Wt           3
 9 Acvrl1        Hom          3
10 Acvrl1        Wt           1
# … with 409 more rows
…
~~~
cnts %>%
  filter(cnt > 10000) %>%
  count(gene, genotype) %>%
  arrange(genotype, desc(n))
~~~
{: .language-r}



~~~
# A tibble: 419 x 3
   gene    genotype     n
   <chr>   <chr>    <int>
 1 Abca3   Hom          3
 2 Ace     Hom          3
 3 Actb    Hom          3
 4 Acvrl1  Hom          3
 5 Ager    Hom          3
 6 Ahnak   Hom          3
 7 Akr1a1  Hom          3
 8 Aldh1a1 Hom          3
 9 Aldh2   Hom          3
10 Anxa2   Hom          3
# … with 409 more rows
…
>
>> ## Solution
>>
>> 
>> ~~~
>> cnts %>%
>>   filter(cnt == 0) %>%
>>   count(gene) 
>> ~~~
>> {: .language-r}
>> 
>> 
>> 
>> ~~~
>> # A tibble: 23,451 x 2
>>    gene              n
>>    <chr>         <int>
>>  1 0610005C13Rik     4
>>  2 0610012D04Rik     2
>>  3 0610025J13Rik     1
>>  4 0610031O16Rik     4
>>  5 0610040F04Rik     2
>>  6 1110002J07Rik     1
>>  7 1110008E08Rik     6
>>  8 1110015O18Rik     6
>>  9 1110025L11Rik     6
>> 10 1110028F18Rik     5
>> # … with 23,441 more rows
…
>>         mean = mean(cnt),
>>         stdev = sd(cnt)
>>     ) %>% 
>>     pivot_wider(
>>         id_cols = gene,
>>         names_from = genotype,
>>         values_from = (c(mean, stdev))
>>     )
>> ~~~
>> {: .language-r}
>> 
>> 
>> 
>> ~~~
>> # A tibble: 43,280 x 5
>> # Groups:   gene [43,280]
>>    gene          mean_Hom mean_Wt stdev_Hom stdev_Wt
>>    <chr>            <dbl>   <dbl>     <dbl>    <dbl>
>>  1 0610005C13Rik    0.333    1.67     0.577     2.89
>>  2 0610007P14Rik  818.     573.      55.8      20.6 
>>  3 0610009B22Rik  210      115.      20.0      18.8 
>>  4 0610009E02Rik   14        9.33     6.08      3.51
>>  5 0610009L18Rik   46       31       10.4       5.57
>>  6 0610009O20Rik 1293.     803.      59.5      47.9 
>>  7 0610010F05Rik  349      186       52.2      15   
>>  8 0610010K14Rik    5.33     4.67     2.08      5.51
>>  9 0610011F06Rik  389.     314       40.0       6.08
>> 10 0610012D04Rik    2.33     2        2.08      2   
>> # … with 43,270 more rows
…
