…
>
>> ## Solution
>>
>> 
>> ~~~
>> cnts %>%
>>   filter(cnt > 10000 & genotype == "Wt") %>%
>>   select(gene, cnt)
>> ~~~
>> {: .language-r}
>> 
>> 
>> 
>> ~~~
>> # A tibble: 399 x 2
>>    gene     cnt
>>    <chr>  <dbl>
>>  1 Abca3  10111
>>  2 Ace    13834
>>  3 Ace    16353
>>  4 Ace    16830
>>  5 Actb   68901
>>  6 Actb   62553
>>  7 Actb   68037
>>  8 Acvrl1 10195
>>  9 Ager   51453
>> 10 Ager   47068
>> # … with 389 more rows
…
>
>> ## Solution
>>
>> 
>> ~~~
>> cnts %>%
>>   filter(cnt == 0) %>%
>>   count(gene) 
>> ~~~
>> {: .language-r}
>> 
>> 
>> 
>> ~~~
>> # A tibble: 23,451 x 2
>>    gene              n
>>    <chr>         <int>
>>  1 0610005C13Rik     4
>>  2 0610012D04Rik     2
>>  3 0610025J13Rik     1
>>  4 0610031O16Rik     4
>>  5 0610040F04Rik     2
>>  6 1110002J07Rik     1
>>  7 1110008E08Rik     6
>>  8 1110015O18Rik     6
>>  9 1110025L11Rik     6
>> 10 1110028F18Rik     5
>> # … with 23,441 more rows
…
>>         mean = mean(cnt),
>>         stdev = sd(cnt)
>>     ) %>% 
>>     pivot_wider(
>>         id_cols = gene,
>>         names_from = genotype,
>>         values_from = (c(mean, stdev))
>>     )
>> ~~~
>> {: .language-r}
>> 
>> 
>> 
>> ~~~
>> # A tibble: 43,280 x 5
>> # Groups:   gene [43,280]
>>    gene          mean_Hom mean_Wt stdev_Hom stdev_Wt
>>    <chr>            <dbl>   <dbl>     <dbl>    <dbl>
>>  1 0610005C13Rik    0.333    1.67     0.577     2.89
>>  2 0610007P14Rik  818.     573.      55.8      20.6 
>>  3 0610009B22Rik  210      115.      20.0      18.8 
>>  4 0610009E02Rik   14        9.33     6.08      3.51
>>  5 0610009L18Rik   46       31       10.4       5.57
>>  6 0610009O20Rik 1293.     803.      59.5      47.9 
>>  7 0610010F05Rik  349      186       52.2      15   
>>  8 0610010K14Rik    5.33     4.67     2.08      5.51
>>  9 0610011F06Rik  389.     314       40.0       6.08
>> 10 0610012D04Rik    2.33     2        2.08      2   
>> # … with 43,270 more rows
…
